Lab2_Pipelined RISC-V Processor/314512065-lab2/lab2/riscvlong-CoreDpath-bypass-sim.vcd
$date
	Tue Oct  7 22:25:42 2025
$end
$version
	Icarus Verilog
$end
$timescale
	1ps
$end
$scope module riscvlong_CoreDpath_bypass_sim $end
$var wire 32 ! proc2csr_data_Whl [31:0] $end
$var wire 1 " muldivresp_val $end
$var wire 1 # muldivreq_rdy $end
$var wire 32 $ imemreq_msg_addr [31:0] $end
$var wire 32 % dmemreq_msg_data [31:0] $end
$var wire 32 & dmemreq_msg_addr [31:0] $end
$var wire 1 ' branch_cond_ne_Xhl $end
$var wire 1 ( branch_cond_ltu_Xhl $end
$var wire 1 ) branch_cond_lt_Xhl $end
$var wire 1 * branch_cond_geu_Xhl $end
$var wire 1 + branch_cond_ge_Xhl $end
$var wire 1 , branch_cond_eq_Xhl $end
$var parameter 4 - ALU_ADD $end
$var reg 4 . alu_fn_Xhl [3:0] $end
$var reg 1 / clk $end
$var reg 32 0 dmemresp_msg_data [31:0] $end
$var reg 3 1 dmemresp_mux_sel_Mhl [2:0] $end
$var reg 1 2 dmemresp_queue_en_Mhl $end
$var reg 1 3 dmemresp_queue_val_Mhl $end
$var reg 1 4 execute_mux_sel_Xhl $end
$var reg 32 5 inst_Dhl [31:0] $end
$var reg 1 6 muldiv_mux_sel_Xhl $end
$var reg 3 7 muldivreq_msg_fn_Xhl [2:0] $end
$var reg 1 8 muldivreq_val $end
$var reg 1 9 muldivresp_rdy $end
$var reg 2 : op0_mux_sel_Dhl [1:0] $end
$var reg 3 ; op1_mux_sel_Dhl [2:0] $end
$var reg 2 < pc_mux_sel_Phl [1:0] $end
$var reg 1 = reset $end
$var reg 5 > rf_waddr_Whl [4:0] $end
$var reg 1 ? rf_wen_Whl $end
$var reg 2 @ rs1_byp_mux_sel_Dhl [1:0] $end
$var reg 2 A rs2_byp_mux_sel_Dhl [1:0] $end
$var reg 1 B stall_Dhl $end
$var reg 1 C stall_Fhl $end
$var reg 1 D stall_Mhl $end
$var reg 1 E stall_Whl $end
$var reg 1 F stall_Xhl $end
$var reg 1 G wb_mux_sel_Mhl $end
$scope module dut $end
$var wire 4 H alu_fn_Xhl [3:0] $end
$var wire 1 ' branch_cond_ne_Xhl $end
$var wire 32 I byp_M_data [31:0] $end
$var wire 32 J byp_W_data [31:0] $end
$var wire 32 K byp_X_data [31:0] $end
$var wire 1 / clk $end
$var wire 32 L const0 [31:0] $end
$var wire 1 M diffSigns_Xhl $end
$var wire 32 N dmemreq_msg_addr [31:0] $end
$var wire 32 O dmemreq_msg_data [31:0] $end
$var wire 32 P dmemresp_msg_data [31:0] $end
$var wire 3 Q dmemresp_mux_sel_Mhl [2:0] $end
$var wire 1 2 dmemresp_queue_en_Mhl $end
$var wire 1 3 dmemresp_queue_val_Mhl $end
$var wire 1 4 execute_mux_sel_Xhl $end
$var wire 32 R inst_Dhl [31:0] $end
$var wire 32 S jump_targ_Phl [31:0] $end
$var wire 32 T jumpreg_targ_Phl [31:0] $end
$var wire 1 6 muldiv_mux_sel_Xhl $end
$var wire 3 U muldivreq_msg_fn_Xhl [2:0] $end
$var wire 1 8 muldivreq_val $end
$var wire 1 9 muldivresp_rdy $end
$var wire 2 V op0_mux_sel_Dhl [1:0] $end
$var wire 3 W op1_mux_sel_Dhl [2:0] $end
$var wire 2 X pc_mux_sel_Phl [1:0] $end
$var wire 32 Y pc_plus4_Phl [31:0] $end
$var wire 32 Z proc2csr_data_Whl [31:0] $end
$var wire 1 = reset $end
$var wire 32 [ reset_vector [31:0] $end
$var wire 5 \ rf_raddr0_Dhl [4:0] $end
$var wire 5 ] rf_raddr1_Dhl [4:0] $end
$var wire 5 ^ rf_waddr_Whl [4:0] $end
$var wire 1 ? rf_wen_Whl $end
$var wire 2 _ rs1_byp_mux_sel_Dhl [1:0] $end
$var wire 2 ` rs2_byp_mux_sel_Dhl [1:0] $end
$var wire 1 B stall_Dhl $end
$var wire 1 C stall_Fhl $end
$var wire 1 D stall_Mhl $end
$var wire 1 E stall_Whl $end
$var wire 1 F stall_Xhl $end
$var wire 1 G wb_mux_sel_Mhl $end
$var wire 32 a wdata_Dhl [31:0] $end
$var wire 32 b wb_mux_out_Mhl [31:0] $end
$var wire 32 c wb_data_Whl [31:0] $end
$var wire 32 d shamt_Dhl [31:0] $end
$var wire 32 e rs2_val_Dhl [31:0] $end
$var wire 32 f rs1_val_Dhl [31:0] $end
$var wire 32 g rf_rdata1_Dhl [31:0] $end
$var wire 32 h rf_rdata0_Dhl [31:0] $end
$var wire 32 i pc_plus4_Fhl [31:0] $end
$var wire 32 j pc_mux_out_Phl [31:0] $end
$var wire 32 k op1_mux_out_Dhl [31:0] $end
$var wire 32 l op0_mux_out_Dhl [31:0] $end
$var wire 1 " muldivresp_val $end
$var wire 64 m muldivresp_msg_result_Xhl [63:0] $end
$var wire 1 # muldivreq_rdy $end
$var wire 32 n muldiv_mux_out_Xhl [31:0] $end
$var wire 32 o muldiv_mux_out_MD2hl [31:0] $end
$var wire 32 p jumpreg_targ_pretruncate_Dhl [31:0] $end
$var wire 32 q jumpreg_targ_Dhl [31:0] $end
$var wire 32 r jump_targ_Dhl [31:0] $end
$var wire 5 s inst_shamt_Dhl [4:0] $end
$var wire 5 t inst_rs2_Dhl [4:0] $end
$var wire 5 u inst_rs1_Dhl [4:0] $end
$var wire 5 v inst_rd_Dhl [4:0] $end
$var wire 32 w imm_uj_Dhl [31:0] $end
$var wire 32 x imm_u_Dhl [31:0] $end
$var wire 32 y imm_sb_Dhl [31:0] $end
$var wire 32 z imm_s_Dhl [31:0] $end
$var wire 32 { imm_i_Dhl [31:0] $end
$var wire 32 | imemreq_msg_addr [31:0] $end
$var wire 32 } execute_mux_out_Xhl [31:0] $end
$var wire 32 ~ dmemresp_queue_mux_out_Mhl [31:0] $end
$var wire 32 !" dmemresp_mux_out_Mhl [31:0] $end
$var wire 32 "" dmemresp_lhu_Mhl [31:0] $end
$var wire 32 #" dmemresp_lh_Mhl [31:0] $end
$var wire 32 $" dmemresp_lbu_Mhl [31:0] $end
$var wire 32 %" dmemresp_lb_Mhl [31:0] $end
$var wire 32 &" branch_targ_Phl [31:0] $end
$var wire 32 '" branch_targ_Dhl [31:0] $end
$var wire 1 ( branch_cond_ltu_Xhl $end
$var wire 1 ) branch_cond_lt_Xhl $end
$var wire 1 * branch_cond_geu_Xhl $end
$var wire 1 + branch_cond_ge_Xhl $end
$var wire 1 , branch_cond_eq_Xhl $end
$var wire 32 (" alu_out_Xhl [31:0] $end
$var reg 32 )" branch_targ_Xhl [31:0] $end
$var reg 32 *" dmemresp_queue_reg_Mhl [31:0] $end
$var reg 32 +" execute_mux_out_Mhl [31:0] $end
$var reg 1 ," is_muldiv_MD1hl $end
$var reg 1 -" is_muldiv_Mhl $end
$var reg 1 ." is_muldiv_Whl $end
$var reg 1 /" is_muldiv_Xhl $end
$var reg 1 0" muldiv_mux_sel_MD1hl_r $end
$var reg 1 1" muldiv_mux_sel_MD2hl_r $end
$var reg 1 2" muldiv_mux_sel_Mhl_r $end
$var reg 1 3" muldiv_mux_sel_Whl_r $end
$var reg 64 4" muldiv_result_MD2hl [63:0] $end
$var reg 32 5" op0_mux_out_Xhl [31:0] $end
$var reg 32 6" op1_mux_out_Xhl [31:0] $end
$var reg 32 7" pc_Dhl [31:0] $end
$var reg 32 8" pc_Fhl [31:0] $end
$var reg 32 9" pc_Mhl [31:0] $end
$var reg 32 :" pc_Whl [31:0] $end
$var reg 32 ;" pc_Xhl [31:0] $end
$var reg 32 <" pc_debug [31:0] $end
$var reg 32 =" pc_plus4_Dhl [31:0] $end
$var reg 1 >" pending_muldiv $end
$var reg 32 ?" wb_mux_out_Whl [31:0] $end
$var reg 32 @" wdata_Mhl [31:0] $end
$var reg 32 A" wdata_Xhl [31:0] $end
$scope module alu $end
$var wire 4 B" fn [3:0] $end
$var wire 32 C" in0 [31:0] $end
$var wire 32 D" in1 [31:0] $end
$var wire 32 E" shifter_out [31:0] $end
$var wire 32 F" out [31:0] $end
$var wire 32 G" muldiv_out [31:0] $end
$var wire 32 H" logical_out [31:0] $end
$var wire 32 I" addsub_out [31:0] $end
$var reg 11 J" cs [10:0] $end
$var reg 2 K" fn_addsub [1:0] $end
$var reg 2 L" fn_logical [1:0] $end
$var reg 3 M" fn_muldiv [2:0] $end
$var reg 2 N" fn_shifter [1:0] $end
$var reg 2 O" out_mux_sel [1:0] $end
$scope module addsub $end
$var wire 2 P" addsub_fn [1:0] $end
$var wire 32 Q" alu_a [31:0] $end
$var wire 32 R" alu_b [31:0] $end
$var wire 1 S" diffSigns $end
$var wire 32 T" xB [31:0] $end
$var wire 32 U" sum [31:0] $end
$var reg 32 V" result [31:0] $end
$upscope $end
$scope module logical $end
$var wire 32 W" alu_a [31:0] $end
$var wire 32 X" alu_b [31:0] $end
$var wire 2 Y" logical_fn [1:0] $end
$var wire 32 Z" result [31:0] $end
$upscope $end
$scope module muldiv $end
$var wire 32 [" alu_a [31:0] $end
$var wire 32 \" alu_b [31:0] $end
$var wire 3 ]" muldiv_fn [2:0] $end
$var wire 1 ^" negative $end
$var wire 32 _" result [31:0] $end
$var wire 32 `" remainderu [31:0] $end
$var wire 32 a" remainder_raw [31:0] $end
$var wire 32 b" remainder [31:0] $end
$var wire 32 c" quotientu [31:0] $end
$var wire 32 d" quotient_raw [31:0] $end
$var wire 32 e" quotient [31:0] $end
$var wire 32 f" product [31:0] $end
$var wire 32 g" alu_b_u [31:0] $end
$var wire 32 h" alu_a_u [31:0] $end
$upscope $end
$scope module shifter $end
$var wire 32 i" alu_a [31:0] $end
$var wire 32 j" alu_b [31:0] $end
$var wire 2 k" shift_fn [1:0] $end
$var wire 32 l" signed_alu_b [31:0] $end
$var wire 32 m" signed_result [31:0] $end
$var wire 32 n" result [31:0] $end
$upscope $end
$upscope $end
$scope module imuldiv_pipe $end
$var wire 1 / clk $end
$var wire 1 o" muldivreq_go $end
$var wire 32 p" muldivreq_msg_a [31:0] $end
$var wire 32 q" muldivreq_msg_b [31:0] $end
$var wire 3 r" muldivreq_msg_fn [2:0] $end
$var wire 1 8 muldivreq_val $end
$var wire 1 9 muldivresp_rdy $end
$var wire 1 " muldivresp_val $end
$var wire 1 = reset $end
$var wire 1 s" sign $end
$var wire 1 t" stall $end
$var wire 1 D stall_Mhl $end
$var wire 1 D stall_X2hl $end
$var wire 1 E stall_X3hl $end
$var wire 1 F stall_Xhl $end
$var wire 64 u" result0 [63:0] $end
$var wire 32 v" remainderu [31:0] $end
$var wire 32 w" remainder_raw [31:0] $end
$var wire 32 x" remainder [31:0] $end
$var wire 32 y" quotientu [31:0] $end
$var wire 32 z" quotient_raw [31:0] $end
$var wire 32 {" quotient [31:0] $end
$var wire 64 |" product_raw [63:0] $end
$var wire 64 }" product [63:0] $end
$var wire 64 ~" muldivresp_msg_result [63:0] $end
$var wire 1 # muldivreq_rdy $end
$var wire 32 !# b_unsign [31:0] $end
$var wire 32 "# a_unsign [31:0] $end
$var reg 32 ## a_reg [31:0] $end
$var reg 32 $# b_reg [31:0] $end
$var reg 3 %# fn_reg [2:0] $end
$var reg 64 &# result1_reg [63:0] $end
$var reg 64 '# result2_reg [63:0] $end
$var reg 64 (# result3_reg [63:0] $end
$var reg 1 )# val0_reg $end
$var reg 1 *# val1_reg $end
$var reg 1 +# val2_reg $end
$var reg 1 ,# val3_reg $end
$upscope $end
$scope module inst_msg_from_bits $end
$var wire 32 -# msg [31:0] $end
$var wire 5 .# shamt [4:0] $end
$var wire 5 /# rs2 [4:0] $end
$var wire 5 0# rs1 [4:0] $end
$var wire 5 1# rd [4:0] $end
$var wire 7 2# opcode [6:0] $end
$var wire 32 3# imm_uj [31:0] $end
$var wire 32 4# imm_u [31:0] $end
$var wire 32 5# imm_sb [31:0] $end
$var wire 32 6# imm_s [31:0] $end
$var wire 32 7# imm_i [31:0] $end
$var wire 7 8# funct7 [6:0] $end
$var wire 3 9# funct3 [2:0] $end
$upscope $end
$scope module rfile $end
$var wire 1 / clk $end
$var wire 5 :# raddr0 [4:0] $end
$var wire 5 ;# raddr1 [4:0] $end
$var wire 5 <# waddr_p [4:0] $end
$var wire 32 =# wdata_p [31:0] $end
$var wire 1 ? wen_p $end
$var wire 32 ># rdata1 [31:0] $end
$var wire 32 ?# rdata0 [31:0] $end
$upscope $end
$upscope $end
$scope task check_mul_pipeline_no_bypass_then_wpass $end
$var reg 32 @# a [31:0] $end
$var reg 32 A# b [31:0] $end
$var reg 64 B# full [63:0] $end
$var reg 32 C# lo32 [31:0] $end
$upscope $end
$scope task do_load_and_make_mem_data $end
$var reg 32 D# memdata_word [31:0] $end
$upscope $end
$scope task issue_mul_lo_from_D $end
$var reg 5 E# rs1 [4:0] $end
$var reg 5 F# rs2 [4:0] $end
$upscope $end
$scope task lock_alu_to_add $end
$upscope $end
$scope task set_inst_rs $end
$var reg 5 G# rs1 [4:0] $end
$var reg 5 H# rs2 [4:0] $end
$upscope $end
$scope task set_inst_u_imm $end
$var reg 20 I# imm31_12 [31:12] $end
$upscope $end
$scope task unlock_alu $end
$upscope $end
$scope task write_const_to_rd $end
$var reg 32 J# expected_val [31:0] $end
$var reg 5 K# rd [4:0] $end
$var reg 32 L# val [31:0] $end
$upscope $end
$upscope $end
$enddefinitions $end
$comment Show the parameter values. $end
$dumpall
b0 -
$end
#0
$dumpvars
bx L#
bx K#
bx J#
bx I#
bx H#
bx G#
bx F#
bx E#
bx D#
bx C#
bx B#
bx A#
bx @#
b0 ?#
b0 >#
bx =#
b0 <#
b0 ;#
b0 :#
b0 9#
b0 8#
b0 7#
b0 6#
b0 5#
b0 4#
b0 3#
b0 2#
b0 1#
b0 0#
b0 /#
b0 .#
b0 -#
x,#
x+#
x*#
x)#
bx (#
bx '#
bx &#
bx %#
bx $#
bx ##
bx "#
bx !#
bx ~"
bx }"
bx |"
bx {"
bx z"
bx y"
bx x"
bx w"
bx v"
bx u"
0t"
xs"
b0 r"
b0 q"
b0 p"
0o"
bx n"
bx m"
bx l"
bx k"
bx j"
bx i"
bx h"
bx g"
bx f"
bx e"
bx d"
bx c"
bx b"
bx a"
bx `"
bx _"
x^"
bx ]"
bx \"
bx ["
bx Z"
bx Y"
bx X"
bx W"
bx V"
bx U"
bx T"
xS"
bx R"
bx Q"
bx P"
bx O"
bx N"
bx M"
bx L"
bx K"
bx J"
bx I"
bx H"
bx G"
bx F"
bx E"
bx D"
bx C"
b0 B"
bx A"
bx @"
bx ?"
x>"
bx ="
bx <"
bx ;"
bx :"
bx 9"
bx 8"
bx 7"
bx 6"
bx 5"
bx 4"
x3"
x2"
x1"
x0"
x/"
x."
x-"
x,"
bx +"
bx *"
bx )"
bx ("
bx '"
bx &"
b0 %"
b0 $"
b0 #"
b0 ""
b0 !"
b0 ~
bx }
b10000000000000000000 |
b0 {
b0 z
b0 y
b0 x
b0 w
b0 v
b0 u
b0 t
b0 s
bx r
b0 q
b0 p
bx o
bx n
bx m
b0 l
b0 k
bx j
bx i
b0 h
b0 g
b0 f
b0 e
b0 d
bx c
bx b
b0 a
b0 `
b0 _
b0 ^
b0 ]
b0 \
b10000000000000000000 [
bx Z
bx Y
b0 X
b110 W
b11 V
b0 U
b0 T
bx S
b0 R
b0 Q
b0 P
bx O
bx N
xM
b0 L
bx K
bx J
bx I
b0 H
0G
0F
0E
0D
0C
0B
b0 A
b0 @
0?
b0 >
1=
b0 <
b110 ;
b11 :
19
08
b0 7
06
b0 5
04
03
02
b0 1
b0 0
0/
b0 .
x,
x+
x*
x)
x(
x'
bx &
bx %
b10000000000000000000 $
1#
x"
bx !
$end
#5000
b0 u"
b0 n
b0 }"
0s"
b0 U"
b0 T"
b0 g"
0M
0S"
b0 h"
0^"
b0 |"
b0 !#
b0 "#
b10000000000000000100 j
b0 m"
0"
0,#
0+#
0*#
0)#
b0 m
b0 ~"
b0 (#
b0 '#
b0 &#
b0 $#
b0 ##
b0 %#
b10000000000000000100 Y
b10000000000000000100 i
b10000000000000000000 8"
b0 %
b0 O
b0 A"
b0 f"
b0 6"
b0 D"
b0 R"
b0 X"
b0 \"
b0 i"
b0 l"
b0 5"
b0 C"
b0 Q"
b0 W"
b0 ["
b0 j"
02"
0."
0>"
1/
#10000
0/
#15000
00"
b0 @"
b10000000000000000100 ="
b10000000000000000000 '"
b10000000000000000000 S
b10000000000000000000 r
b10000000000000000000 7"
1/
#20000
0/
#25000
b10000000000000001000 j
b10000000000000001000 Y
b10000000000000001000 i
b10000000000000000100 8"
b10000000000000000000 &"
b10000000000000000000 )"
b10000000000000000000 ;"
b10000000000000001000 $
b10000000000000001000 |
0=
1/
#26000
b10001000100000000000000000000 k
bx a
bx e
bx q"
bx g
bx >#
b100010000 T
b100010000 q
b110111 2#
b10001 ]
b10001 ;#
b10001 t
b10001 /#
b10001 d
b10001 s
b10001 .#
b1000 8#
b100010001 p
b100010001 {
b100010001 7#
b100000000 z
b100000000 6#
b10000000000100000000 '"
b100000000 y
b100000000 5#
b10001000100000000000000000000 x
b10001000100000000000000000000 4#
b10000000100100010000 S
b10000000100100010000 r
b100100010000 w
b100100010000 3#
b10001000100010001000000000000 J#
b10001000100000000000000110111 5
b10001000100000000000000110111 R
b10001000100000000000000110111 -#
b10001000100010001 I#
b10 ;
b10 W
b1 K#
b10001000100010001000000000000 L#
#30000
0/
#35000
b0 e"
b0 b"
b10000000000000001100 $
b10000000000000001100 |
bx U"
bx100000000000000000000 T"
b0 d"
b0 a"
b10001000100000000000000000000 g"
b10000000000000001100 j
b10000000000000000000 9"
bx %
bx O
bx A"
b0 c"
b0 `"
b10001000100000000000000000000 6"
b10001000100000000000000000000 D"
b10001000100000000000000000000 R"
b10001000100000000000000000000 X"
b10001000100000000000000000000 \"
b10001000100000000000000000000 i"
b10000000000100000000 &"
b10000000000100000000 )"
b10000000000000001000 ="
b10000000000100000100 '"
b10000000100100010100 S
b10000000100100010100 r
b10000000000000000100 7"
b10000000000000001100 Y
b10000000000000001100 i
b10000000000000001000 8"
1/
#40000
0/
#45000
b10000000000000010000 $
b10000000000000010000 |
b10000000000000010000 j
b10000000000000010000 Y
b10000000000000010000 i
b10000000000000001100 8"
b10000000000000001100 ="
b10000000000100001000 '"
b10000000100100011000 S
b10000000100100011000 r
b10000000000000001000 7"
b10000000000100000100 &"
b10000000000100000100 )"
b10000000000000000100 ;"
bx @"
b10000000000000000000 :"
1/
#50000
0/
#55000
b10000000000000010100 $
b10000000000000010100 |
b10000000000000010100 j
b10000000000000000000 <"
b10000000000000000100 9"
b10000000000100001000 &"
b10000000000100001000 )"
b10000000000000001000 ;"
b10000000000000010000 ="
b10000000000100001100 '"
b10000000100100011100 S
b10000000100100011100 r
b10000000000000001100 7"
b10000000000000010100 Y
b10000000000000010100 i
b10000000000000010000 8"
1/
#56000
1?
b1 >
b1 ^
b1 <#
1E
#60000
0/
#65000
b10000000000000011000 $
b10000000000000011000 |
b10000000000000011000 j
b10000000000000011000 Y
b10000000000000011000 i
b10000000000000010100 8"
b10000000000000010100 ="
b10000000000100010000 '"
b10000000100100100000 S
b10000000100100100000 r
b10000000000000010000 7"
b10000000000100001100 &"
b10000000000100001100 )"
b10000000000000001100 ;"
b10000000000000001000 9"
1/
#66000
b100010001000000000000000000000 k
b1000100010 T
b1000100010 q
b10 ]
b10 ;#
b10 t
b10 /#
b10 d
b10 s
b10 .#
b10001 8#
b1000100010 p
b1000100010 {
b1000100010 7#
b1000100000 z
b1000100000 6#
b10000000001000110000 '"
b1000100000 y
b1000100000 5#
b100010001000000000000000000000 x
b100010001000000000000000000000 4#
b10000000001000110010 S
b10000000001000110010 r
b1000100010 w
b1000100010 3#
b100010001000100010000000000000 J#
b100010001000000000000000110111 5
b100010001000000000000000110111 R
b100010001000000000000000110111 -#
b100010001000100010 I#
b10 K#
b100010001000100010000000000000 L#
0E
0?
#70000
0/
#75000
b10000000000000011100 $
b10000000000000011100 |
bx1000000000000000000000 T"
b100010001000000000000000000000 g"
b10000000000000011100 j
b10000000000000001000 :"
b10000000000000001100 9"
b100010001000000000000000000000 6"
b100010001000000000000000000000 D"
b100010001000000000000000000000 R"
b100010001000000000000000000000 X"
b100010001000000000000000000000 \"
b100010001000000000000000000000 i"
b10000000001000110000 &"
b10000000001000110000 )"
b10000000000000010000 ;"
b10000000000000011000 ="
b10000000001000110100 '"
b10000000001000110110 S
b10000000001000110110 r
b10000000000000010100 7"
b10000000000000011100 Y
b10000000000000011100 i
b10000000000000011000 8"
1/
#80000
0/
#85000
b10000000000000100000 $
b10000000000000100000 |
b10000000000000100000 j
b10000000000000100000 Y
b10000000000000100000 i
b10000000000000011100 8"
b10000000000000011100 ="
b10000000001000111000 '"
b10000000001000111010 S
b10000000001000111010 r
b10000000000000011000 7"
b10000000001000110100 &"
b10000000001000110100 )"
b10000000000000010100 ;"
b10000000000000010000 9"
b10000000000000001100 :"
b10000000000000001000 <"
1/
#90000
0/
#95000
b10000000000000100100 $
b10000000000000100100 |
b10000000000000100100 j
b10000000000000001100 <"
b10000000000000010000 :"
b10000000000000010100 9"
b10000000001000111000 &"
b10000000001000111000 )"
b10000000000000011000 ;"
b10000000000000100000 ="
b10000000001000111100 '"
b10000000001000111110 S
b10000000001000111110 r
b10000000000000011100 7"
b10000000000000100100 Y
b10000000000000100100 i
b10000000000000100000 8"
1/
#96000
1?
b10 >
b10 ^
b10 <#
1E
#100000
0/
#105000
b10000000000000101000 $
b10000000000000101000 |
b10000000000000101000 j
b10000000000000101000 Y
b10000000000000101000 i
b10000000000000100100 8"
b10000000000000100100 ="
b10000000001001000000 '"
b10000000001001000010 S
b10000000001001000010 r
b10000000000000100000 7"
b10000000001000111100 &"
b10000000001000111100 )"
b10000000000000011100 ;"
b10000000000000011000 9"
b10000000000000010000 <"
1/
#106000
b1100000000000000000000 k
b10 T
b10 q
b11 ]
b11 ;#
b11 t
b11 /#
b11 d
b11 s
b11 .#
b0 8#
b11 p
b11 {
b11 7#
b0 z
b0 6#
b10000000000000100000 '"
b0 y
b0 5#
b1100000000000000000000 x
b1100000000000000000000 4#
b10000000100000100010 S
b10000000100000100010 r
b100000000010 w
b100000000010 3#
b11000000000000 J#
b1100000000000000110111 5
b1100000000000000110111 R
b1100000000000000110111 -#
b11 I#
b1 K#
b11000000000000 L#
0E
0?
#110000
0/
#115000
b10000000000000101100 $
b10000000000000101100 |
bx100000000000000000000 T"
b1100000000000000000000 g"
b10000000000000101100 j
b10000000000000011000 :"
b10000000000000011100 9"
b1100000000000000000000 6"
b1100000000000000000000 D"
b1100000000000000000000 R"
b1100000000000000000000 X"
b1100000000000000000000 \"
b1100000000000000000000 i"
b10000000000000100000 &"
b10000000000000100000 )"
b10000000000000100000 ;"
b10000000000000101000 ="
b10000000000000100100 '"
b10000000100000100110 S
b10000000100000100110 r
b10000000000000100100 7"
b10000000000000101100 Y
b10000000000000101100 i
b10000000000000101000 8"
1/
#120000
0/
#125000
b10000000000000110000 $
b10000000000000110000 |
b10000000000000110000 j
b10000000000000110000 Y
b10000000000000110000 i
b10000000000000101100 8"
b10000000000000101100 ="
b10000000000000101000 '"
b10000000100000101010 S
b10000000100000101010 r
b10000000000000101000 7"
b10000000000000100100 &"
b10000000000000100100 )"
b10000000000000100100 ;"
b10000000000000100000 9"
b10000000000000011100 :"
b10000000000000011000 <"
1/
#130000
0/
#135000
b10000000000000110100 $
b10000000000000110100 |
b10000000000000110100 j
b10000000000000011100 <"
b10000000000000100000 :"
b10000000000000100100 9"
b10000000000000101000 &"
b10000000000000101000 )"
b10000000000000101000 ;"
b10000000000000110000 ="
b10000000000000101100 '"
b10000000100000101110 S
b10000000100000101110 r
b10000000000000101100 7"
b10000000000000110100 Y
b10000000000000110100 i
b10000000000000110000 8"
1/
#136000
1?
b1 >
b1 ^
b1 <#
1E
#140000
0/
#145000
b10000000000000111000 $
b10000000000000111000 |
b10000000000000111000 j
b10000000000000111000 Y
b10000000000000111000 i
b10000000000000110100 8"
b10000000000000110100 ="
b10000000000000110000 '"
b10000000100000110010 S
b10000000100000110010 r
b10000000000000110000 7"
b10000000000000101100 &"
b10000000000000101100 )"
b10000000000000101100 ;"
b10000000000000101000 9"
b10000000000000100000 <"
1/
#146000
b10000000000000000000000 k
b100 T
b100 q
b100 ]
b100 ;#
b100 t
b100 /#
b100 d
b100 s
b100 .#
b100 p
b100 {
b100 7#
b10000000000000000000000 x
b10000000000000000000000 4#
b10000000000000110100 S
b10000000000000110100 r
b100 w
b100 3#
b100000000000000 J#
b10000000000000000110111 5
b10000000000000000110111 R
b10000000000000000110111 -#
b100 I#
b10 K#
b100000000000000 L#
0E
0?
#150000
0/
#155000
b10000000000000111100 $
b10000000000000111100 |
bx10000000000000000000000 T"
b10000000000000000000000 g"
b10000000000000111100 j
b10000000000000101000 :"
b10000000000000101100 9"
b10000000000000000000000 6"
b10000000000000000000000 D"
b10000000000000000000000 R"
b10000000000000000000000 X"
b10000000000000000000000 \"
b10000000000000000000000 i"
b10000000000000110000 &"
b10000000000000110000 )"
b10000000000000110000 ;"
b10000000000000111000 ="
b10000000000000110100 '"
b10000000000000111000 S
b10000000000000111000 r
b10000000000000110100 7"
b10000000000000111100 Y
b10000000000000111100 i
b10000000000000111000 8"
1/
#160000
0/
#165000
b10000000000001000000 $
b10000000000001000000 |
b10000000000001000000 j
b10000000000001000000 Y
b10000000000001000000 i
b10000000000000111100 8"
b10000000000000111100 ="
b10000000000000111000 '"
b10000000000000111100 S
b10000000000000111100 r
b10000000000000111000 7"
b10000000000000110100 &"
b10000000000000110100 )"
b10000000000000110100 ;"
b10000000000000110000 9"
b10000000000000101100 :"
b10000000000000101000 <"
1/
#170000
0/
#175000
b10000000000001000100 $
b10000000000001000100 |
b10000000000001000100 j
b10000000000000101100 <"
b10000000000000110000 :"
b10000000000000110100 9"
b10000000000000111000 &"
b10000000000000111000 )"
b10000000000000111000 ;"
b10000000000001000000 ="
b10000000000000111100 '"
b10000000000001000000 S
b10000000000001000000 r
b10000000000000111100 7"
b10000000000001000100 Y
b10000000000001000100 i
b10000000000001000000 8"
1/
#176000
1?
b10 >
b10 ^
b10 <#
1E
#180000
0/
#185000
b10000000000001001000 $
b10000000000001001000 |
b10000000000001001000 j
b10000000000001001000 Y
b10000000000001001000 i
b10000000000001000100 8"
b10000000000001000100 ="
b10000000000001000000 '"
b10000000000001000100 S
b10000000000001000100 r
b10000000000001000000 7"
b10000000000000111100 &"
b10000000000000111100 )"
b10000000000000111100 ;"
b10000000000000111000 9"
b10000000000000110000 <"
1/
#186000
b1000001000000000000000 k
bx f
bx p"
b0 K
b0 }
bx0 T
bx0 q
bx h
bx ?#
1o"
1/"
b10 ]
b10 ;#
b10 t
b10 /#
b10 d
b10 s
b10 .#
bx p
b10 {
b10 7#
b1 \
b1 :#
b1 u
b1 0#
b1000001000000000000000 x
b1000001000000000000000 4#
b10001000000001000010 S
b10001000000001000010 r
b1000000000000010 w
b1000000000000010 3#
18
14
b10 F#
b1 E#
b1000001000000000110111 5
b1000001000000000110111 R
b1000001000000000110111 -#
b10 H#
b1 G#
0E
0?
#190000
0/
#195000
bx u"
b10000000000001001100 $
b10000000000001001100 |
xs"
bx }"
b0 I
b0 b
bx1000000000000000 T"
b1000001000000000000000 g"
b10000000000001001100 j
bx !#
bx |"
bx "#
b10000000000000111000 :"
1-"
b0 +"
b10000000000000111100 9"
b1000001000000000000000 6"
b1000001000000000000000 D"
b1000001000000000000000 R"
b1000001000000000000000 X"
b1000001000000000000000 \"
b1000001000000000000000 i"
b10000000000001000000 &"
b10000000000001000000 )"
b10000000000001000000 ;"
b10000000000001001000 ="
b10000000000001000100 '"
b10001000000001000110 S
b10001000000001000110 r
b10000000000001000100 7"
b10000000000001001100 Y
b10000000000001001100 i
b10000000000001001000 8"
1)#
bx $#
bx ##
1/
#196000
bx l
b0 k
bx0 T
bx0 q
bx K
bx }
bx p
bx f
bx p"
0/"
0o"
b110 ;
b110 W
b0 :
b0 V
b1 @
b1 _
b1100000000000000000000000000 C#
b1100000000000000000000000000 B#
b100000000000000 A#
b11000000000000 @#
04
08
#200000
0/
#205000
b10000000000001010000 $
b10000000000001010000 |
xM
xS"
x^"
bx e"
bx b"
b10000000000001010000 j
b0 T"
b0 g"
bx d"
bx a"
bx h"
bx I
bx b
b0 J
b0 !
b0 Z
b0 c
b0 =#
1*#
bx &#
0)#
b10000000000001010000 Y
b10000000000001010000 i
b10000000000001001100 8"
b10000000000001001100 ="
b10000000000001001000 '"
b10001000000001001010 S
b10001000000001001010 r
b10000000000001001000 7"
b0 6"
b0 D"
b0 R"
b0 X"
b0 \"
b0 i"
bx f"
bx c"
bx `"
bx m"
bx l"
bx 5"
bx C"
bx Q"
bx W"
bx ["
bx j"
b10000000000001000100 &"
b10000000000001000100 )"
b10000000000001000100 ;"
bx +"
b10000000000001000000 9"
1,"
0-"
b0 ?"
b10000000000000111100 :"
b10000000000000111000 <"
1/
#206000
b10 @
b10 _
#210000
0/
#215000
b10000000000001010100 $
b10000000000001010100 |
bx J
bx !
bx Z
bx c
bx =#
b10000000000001010100 j
b10000000000000111100 <"
bx ?"
b10000000000001000000 :"
0,"
b10000000000001000100 9"
b10000000000001001000 &"
b10000000000001001000 )"
b10000000000001001000 ;"
b10000000000001010000 ="
b10000000000001001100 '"
b10001000000001001110 S
b10001000000001001110 r
b10000000000001001100 7"
b10000000000001010100 Y
b10000000000001010100 i
b10000000000001010000 8"
1+#
bx '#
0*#
1/
#216000
b11 @
b11 _
#220000
0/
